<svg width="115" height="114" viewBox="0 0 115 114" fill="none" xmlns="http://www.w3.org/2000/svg">
<path d="M73.4902 82.0708C71.6536 83.1099 70.0103 84.1007 68.1979 84.7774C67.6179 84.9949 67.6904 85.4057 67.6904 85.8407C67.6904 92.9697 67.6904 100.099 67.6662 107.228C67.6662 108.001 67.8595 108.243 68.657 108.243C73.4419 108.194 78.2509 108.218 83.0358 108.218C89.8507 108.218 96.6413 108.218 103.456 108.218C104.109 108.218 104.495 108.122 104.785 107.397C105.631 105.198 107.975 103.989 110.15 104.424C112.446 104.884 114.065 106.841 114.089 109.113C114.113 111.433 112.567 113.342 110.247 113.873C108.048 114.381 105.776 113.269 104.858 111.022C104.519 110.224 104.109 110.079 103.335 110.079C91.494 110.103 79.6526 110.103 67.8112 110.103C65.7571 110.103 65.7571 110.103 65.7571 108.098C65.7571 101.017 65.7571 93.9122 65.7812 86.8315C65.7812 85.9615 65.7812 85.5507 64.6454 85.8649C59.6189 87.2907 54.544 87.2182 49.4933 85.9132C49.155 85.8165 48.8166 85.6232 48.3575 85.7682C48.3575 86.179 48.3575 86.614 48.3575 87.049C48.3575 94.178 48.3575 101.307 48.3575 108.436C48.3575 109.958 48.2125 110.103 46.69 110.103C34.7761 110.103 22.8381 110.103 10.9242 110.103C10.1025 110.103 9.59506 110.176 9.2084 111.118C8.36259 113.245 6.04264 114.357 3.86769 113.898C1.64441 113.414 0.0494504 111.505 0.00111819 109.258C-0.047214 106.914 1.47525 105.004 3.7952 104.473C5.99431 103.965 8.19343 105.004 9.16007 107.155C9.52256 107.977 9.93338 108.243 10.8275 108.243C22.2581 108.218 33.7128 108.218 45.1434 108.243C46.11 108.243 46.4242 108.074 46.4242 107.034C46.3759 100.075 46.3759 93.0905 46.4242 86.1307C46.4242 85.2607 46.1584 84.8499 45.3609 84.5599C43.7418 83.9799 42.2676 83.0616 40.6002 82.0708C40.6002 82.5783 40.6002 82.9166 40.6002 83.2549C40.6002 87.194 40.576 91.1572 40.6243 95.0963C40.6485 96.2563 40.2135 96.6671 39.0535 96.6429C33.447 96.5946 27.8646 96.6429 22.2581 96.6188C21.5089 96.6188 21.1465 96.7879 20.8323 97.5371C19.9865 99.6637 17.7149 100.872 15.5641 100.437C13.2925 100.002 11.625 98.0446 11.6008 95.773C11.5767 93.453 13.0991 91.4956 15.3949 90.9639C17.594 90.4564 19.8173 91.4956 20.7598 93.6463C21.1223 94.4922 21.5573 94.7338 22.4514 94.7096C27.5263 94.6613 32.6012 94.6613 37.6761 94.7096C38.4252 94.7096 38.7152 94.5647 38.691 93.743C38.6427 89.6831 38.6669 85.599 38.691 81.5391C38.691 80.9108 38.5219 80.5242 38.0144 80.1133C36.1536 78.6392 34.607 76.8509 32.867 74.8209C32.867 77.2617 32.8187 79.4125 32.8912 81.5633C32.9153 82.7233 32.4562 83.1099 31.3204 83.1099C24.5055 83.0858 17.7149 83.1099 10.9 83.0858C10.0542 83.0858 9.57089 83.2066 9.2084 84.1249C8.36259 86.2515 6.01848 87.3632 3.86769 86.904C1.64441 86.4207 0.0494504 84.4874 0.0252843 82.2399C0.00111817 79.92 1.52358 77.9867 3.81936 77.4309C5.97014 76.9234 8.24176 77.9867 9.18424 80.1375C9.54673 80.9833 9.98172 81.2008 10.8759 81.2008C17.2074 81.1525 23.5147 81.1525 29.8463 81.2008C30.7404 81.2008 31.0062 81.0075 30.9821 80.0892C30.9096 77.6242 30.9096 75.1834 30.9821 72.7185C31.0062 71.8244 30.8371 71.4619 29.8221 71.486C27.333 71.5585 24.8197 71.5585 22.3306 71.486C21.5089 71.4619 21.1706 71.7277 20.8565 72.4768C19.8898 74.7726 17.3765 75.8843 15.0808 75.1593C12.7125 74.4101 11.2625 72.0902 11.6975 69.7219C12.1083 67.3778 14.235 65.6137 16.6032 65.7345C18.6332 65.8312 20.1315 66.822 20.9048 68.7069C21.1706 69.3594 21.4848 69.6252 22.2098 69.6011C24.578 69.5527 26.9705 69.5769 29.3388 69.5769C29.4596 69.5769 29.5804 69.5527 29.8221 69.5044C26.1972 61.1913 26.1972 52.8781 29.8463 44.4442C27.043 44.4442 24.4089 44.4683 21.7506 44.4442C21.0256 44.4442 21.074 45 20.8806 45.4108C19.914 47.5133 17.739 48.6732 15.5399 48.2624C13.3891 47.8516 11.7217 45.9666 11.6008 43.7917C11.48 41.4234 12.9783 39.3934 15.3224 38.8135C17.5215 38.2576 19.8898 39.3693 20.784 41.4959C21.1223 42.3175 21.5331 42.535 22.3548 42.535C24.8922 42.4867 27.4296 42.4867 29.9671 42.535C30.6437 42.535 30.9579 42.4625 30.9579 41.6409C30.9096 38.9826 30.9096 36.3243 30.9579 33.6661C30.9579 33.0619 30.8129 32.8203 30.1604 32.8444C23.5631 32.8686 16.9416 32.8686 10.3442 32.8444C9.52256 32.8444 9.47423 33.3761 9.25673 33.8594C8.29009 35.9619 6.11514 37.0977 3.91603 36.6627C1.76524 36.2518 0.121949 34.3427 0.0252843 32.1678C-0.0713801 29.8478 1.40275 27.842 3.6502 27.2379C5.84931 26.6579 8.24176 27.6971 9.16007 29.8478C9.54673 30.7661 10.0542 30.9595 10.9484 30.9595C17.6665 30.9353 24.4089 30.9353 31.1271 30.9353C32.7462 30.9353 32.867 31.0561 32.867 32.6511C32.867 34.7536 32.867 36.8318 32.867 39.2001C33.592 38.4026 34.172 37.7743 34.7278 37.146C35.7186 35.986 36.8303 34.9227 38.0144 33.9561C38.4494 33.5936 38.691 33.2553 38.691 32.6511C38.6669 28.4945 38.6669 24.3621 38.691 20.2056C38.691 19.5531 38.546 19.3114 37.8211 19.3114C32.5529 19.3356 27.2605 19.3356 21.9923 19.3114C21.219 19.3114 21.0981 19.7222 20.8565 20.2539C20.0106 22.2597 18.1499 23.3472 15.9507 23.1538C13.9933 22.9847 12.3742 21.6314 11.8183 19.6256C11.2625 17.6681 11.9633 15.6382 13.6791 14.4057C16.0957 12.6657 19.624 13.5599 20.784 16.339C21.1465 17.209 21.6056 17.4023 22.4756 17.4023C27.9613 17.354 33.4228 17.3781 38.9085 17.3781C40.4793 17.3781 40.6243 17.5231 40.6243 19.1181C40.6243 22.9363 40.6243 26.7787 40.6243 30.597C40.6243 30.9836 40.6243 31.3703 40.6243 31.902C42.5093 30.887 44.2251 29.8478 46.11 29.147C46.4967 29.002 46.4242 28.6395 46.4242 28.3254C46.4242 21.0755 46.4 13.8257 46.4484 6.57588C46.4484 5.53674 45.8442 5.75423 45.2642 5.75423C35.4286 5.75423 25.6172 5.75423 15.7816 5.75423C14.09 5.75423 12.3983 5.7784 10.7067 5.73007C9.98172 5.7059 9.59506 5.8509 9.2809 6.62421C8.36259 8.89582 6.09098 10.0316 3.7952 9.52414C1.52358 9.04082 -0.0713801 6.96254 0.0252843 4.61843C0.121949 2.32265 1.86191 0.413524 4.25435 0.0510327C6.26014 -0.263127 8.43509 0.896846 9.23257 2.87847C9.57089 3.74845 10.03 3.89344 10.8275 3.89344C22.7173 3.86928 34.5828 3.86928 46.4725 3.86928C48.285 3.86928 48.3575 3.96594 48.3575 5.80256C48.3575 12.9316 48.3816 20.0606 48.3333 27.1896C48.3333 28.2287 48.5508 28.3495 49.5416 28.0837C54.544 26.7062 59.5705 26.6821 64.5488 28.0837C65.6846 28.3979 65.7812 28.0595 65.7812 27.0929C65.7571 19.9639 65.7571 12.8349 65.7571 5.7059C65.7571 3.99011 65.8779 3.86928 67.642 3.86928C79.5317 3.86928 91.3973 3.86928 103.287 3.89344C104.085 3.89344 104.568 3.72428 104.906 2.90263C105.824 0.703517 108.072 -0.359791 110.344 0.171863C112.615 0.703517 114.162 2.68514 114.089 5.00508C114.041 7.22836 112.373 9.20998 110.174 9.62081C107.903 10.0558 105.655 8.87166 104.809 6.69671C104.495 5.9234 104.085 5.80256 103.384 5.80256C91.8565 5.82673 80.3534 5.82673 68.8262 5.7784C67.8354 5.7784 67.6662 6.06839 67.6662 6.9867C67.6904 13.9949 67.6904 21.003 67.6662 28.0112C67.6662 28.7604 67.8354 29.1953 68.5845 29.437C70.252 30.017 71.7503 30.9836 73.2727 31.8536C73.6352 31.612 73.4661 31.2495 73.4661 30.9595C73.4902 26.9721 73.4661 22.9847 73.4661 18.9973C73.4661 17.6198 73.7077 17.4023 75.0852 17.4023C80.6434 17.4023 86.2016 17.3781 91.7598 17.4265C92.5814 17.4265 92.9439 17.1848 93.2581 16.4356C94.1764 14.2849 96.3997 13.1974 98.5746 13.6565C100.895 14.164 102.465 16.0732 102.465 18.3931C102.465 20.6406 100.895 22.598 98.6955 23.1055C96.4722 23.613 94.1522 22.5013 93.2581 20.3022C92.9198 19.4564 92.4364 19.3114 91.639 19.3114C86.6124 19.3356 81.5617 19.3597 76.5352 19.3114C75.5685 19.3114 75.351 19.6014 75.351 20.5197C75.3993 24.5071 75.3752 28.4945 75.351 32.4819C75.351 33.1344 75.5202 33.5936 76.0518 34.0044C77.9126 35.4302 79.4109 37.2427 81.175 39.2484C81.175 37.4118 81.175 35.841 81.175 34.2702C81.175 30.6695 80.7884 30.9353 84.4616 30.9353C90.7448 30.9353 97.028 30.9111 103.311 30.9595C104.109 30.9595 104.52 30.7661 104.834 30.017C105.776 27.842 107.951 26.7304 110.126 27.1896C112.47 27.6971 114.089 29.7028 114.041 32.0228C113.993 34.2461 112.349 36.2277 110.174 36.6627C107.927 37.1218 105.655 35.9619 104.785 33.7627C104.495 33.0136 104.109 32.8444 103.384 32.8444C96.9797 32.8686 90.5757 32.8686 84.1716 32.8444C83.35 32.8444 83.06 33.0136 83.0842 33.8836C83.1567 36.4693 83.1325 39.0309 83.0842 41.6167C83.06 42.39 83.3258 42.5592 84.0266 42.535C86.5641 42.4867 89.1015 42.4867 91.639 42.535C92.4606 42.5592 92.8956 42.3659 93.2581 41.5201C94.1281 39.4176 96.3755 38.306 98.478 38.741C100.798 39.2484 102.417 41.1334 102.441 43.405C102.465 45.6766 100.967 47.6341 98.7438 48.1657C96.4722 48.7216 94.1281 47.6099 93.2098 45.3866C92.8956 44.6133 92.5089 44.3958 91.7115 44.42C89.3432 44.4683 86.9507 44.4442 84.5825 44.4442C84.51 44.4442 84.4375 44.4925 84.2683 44.5892C87.8691 52.854 87.8449 61.1671 84.22 69.5769C86.9991 69.5769 89.609 69.5527 92.2189 69.6011C92.9923 69.6252 92.9923 69.0452 93.2098 68.6103C94.1522 66.5561 96.3272 65.372 98.4296 65.807C100.75 66.2662 102.369 68.1511 102.441 70.4469C102.49 72.7668 100.967 74.7243 98.6713 75.2801C96.5205 75.8118 94.1764 74.7243 93.2823 72.6218C92.8956 71.7035 92.4123 71.486 91.494 71.5102C89.0049 71.5827 86.4916 71.5585 84.0025 71.5102C83.2292 71.486 83.06 71.7277 83.06 72.4527C83.1083 75.0626 83.1083 77.6967 83.06 80.3067C83.06 80.9833 83.2292 81.2008 83.93 81.1766C90.5032 81.1525 97.0522 81.1525 103.625 81.1766C104.399 81.1766 104.544 80.7416 104.761 80.21C105.679 78.1075 107.951 76.9234 110.078 77.3584C112.301 77.8175 113.944 79.7508 113.993 81.9499C114.065 84.2699 112.543 86.2515 110.271 86.8073C108.072 87.3632 105.704 86.2515 104.834 84.0766C104.471 83.1824 103.988 83.0374 103.142 83.0374C96.4964 83.0616 89.8507 83.0616 83.205 83.0616C81.1509 83.0616 81.1509 83.0616 81.1509 80.9591C81.1509 79.0259 81.1509 77.0926 81.1509 75.1593C80.7401 75.0143 80.6434 75.3526 80.4984 75.5459C79.0968 77.2134 77.6226 78.8083 75.9068 80.1617C75.4718 80.5 75.3269 80.8625 75.3269 81.3941C75.351 85.5507 75.351 89.6831 75.3269 93.8397C75.3269 94.5405 75.5685 94.6855 76.221 94.6855C81.465 94.6613 86.6849 94.6613 91.929 94.6855C92.6298 94.6855 92.8956 94.4197 93.1373 93.8155C94.0797 91.6164 96.3514 90.4081 98.5021 90.8914C100.822 91.3989 102.393 93.308 102.393 95.628C102.393 97.8996 100.895 99.8087 98.6471 100.365C96.448 100.896 94.1522 99.8329 93.2098 97.6096C92.8231 96.7154 92.3398 96.5946 91.494 96.5946C86.0083 96.6188 80.5467 96.6188 75.061 96.6188C73.5386 96.6188 73.3936 96.4738 73.3936 94.9755C73.4902 90.7464 73.4902 86.5173 73.4902 82.0708ZM57.0089 85.019C72.4994 85.019 85.0658 72.5252 85.1141 57.083C85.1383 41.5684 72.5719 28.9779 57.0573 28.9537C41.6393 28.9295 29.0246 41.5442 29.0246 56.9864C29.0246 72.4527 41.5426 85.019 57.0089 85.019ZM19.3582 43.4775C19.3582 41.8584 18.0774 40.5776 16.4824 40.5534C14.9116 40.5293 13.5583 41.8825 13.5583 43.4533C13.5583 45.0725 14.8391 46.3533 16.4582 46.3533C18.0774 46.3774 19.3823 45.0966 19.3582 43.4775ZM112.156 31.902C112.18 30.3312 110.827 28.9779 109.256 28.9779C107.685 28.9537 106.356 30.2828 106.356 31.8778C106.356 33.4969 107.637 34.7777 109.256 34.7777C110.851 34.7777 112.132 33.5211 112.156 31.902ZM97.6563 21.2447C99.2996 21.2205 100.556 19.9397 100.556 18.3206C100.556 16.7498 99.1788 15.4207 97.6322 15.4207C96.0614 15.4448 94.7564 16.774 94.7564 18.3689C94.7564 19.9881 96.0372 21.2689 97.6563 21.2447ZM100.556 43.4292C100.532 41.8584 99.1788 40.5293 97.608 40.5534C96.013 40.5776 94.7564 41.8825 94.7564 43.5017C94.7806 45.0966 96.0614 46.3533 97.7047 46.3533C99.2755 46.3533 100.556 45.0483 100.556 43.4292ZM109.256 7.71169C110.875 7.71169 112.156 6.40672 112.156 4.81175C112.132 3.24096 110.779 1.88766 109.232 1.91182C107.613 1.93599 106.332 3.24096 106.356 4.83592C106.356 6.45505 107.637 7.71169 109.256 7.71169ZM7.7826 31.9261C7.7826 30.307 6.5018 28.9779 4.931 28.9779C3.36021 28.9779 2.0069 30.2828 1.98274 31.8536C1.95857 33.4486 3.23938 34.7536 4.8585 34.7777C6.45347 34.8019 7.75844 33.5211 7.7826 31.9261ZM16.4341 21.2447C18.0532 21.2689 19.3582 19.9881 19.3582 18.3931C19.3582 16.7981 18.0774 15.469 16.5066 15.4448C14.9358 15.4207 13.5825 16.7498 13.5583 18.3206C13.5583 19.9397 14.8391 21.2205 16.4341 21.2447ZM4.8585 7.71169C6.47763 7.73585 7.75844 6.47922 7.7826 4.86009C7.7826 3.26512 6.5018 1.93599 4.90684 1.91182C3.33604 1.88766 2.0069 3.21679 1.98274 4.81175C1.95857 6.40672 3.23938 7.68752 4.8585 7.71169ZM4.8585 85.019C6.47763 85.019 7.75844 83.7624 7.7826 82.1433C7.7826 80.5241 6.52597 79.2433 4.90684 79.2192C3.31187 79.2192 1.98274 80.5241 1.95857 82.1191C1.95857 83.7141 3.26354 85.019 4.8585 85.019ZM16.5066 73.4193C18.1257 73.3951 19.3823 72.0902 19.3582 70.471C19.334 68.8519 18.0532 67.5953 16.4341 67.6195C14.8633 67.6195 13.5583 68.9728 13.5825 70.5677C13.5825 72.1868 14.9116 73.4435 16.5066 73.4193ZM100.532 70.5677C100.556 68.9969 99.2513 67.6678 97.6563 67.6436C96.0614 67.6195 94.7564 68.9244 94.7322 70.5194C94.7081 72.1385 95.9889 73.4435 97.608 73.4435C99.2513 73.4435 100.508 72.1868 100.532 70.5677ZM19.3582 95.628C19.334 94.0088 18.029 92.728 16.4341 92.7522C14.8391 92.7764 13.5583 94.1055 13.5583 95.7005C13.5583 97.2954 14.8874 98.5762 16.5066 98.5521C18.1257 98.5279 19.3823 97.2471 19.3582 95.628ZM4.83434 106.285C3.23938 106.309 1.93441 107.639 1.95857 109.233C1.98274 110.828 3.31187 112.109 4.90684 112.085C6.5018 112.061 7.7826 110.756 7.75844 109.137C7.75844 107.542 6.4293 106.261 4.83434 106.285ZM100.532 95.6038C100.508 94.033 99.1546 92.7039 97.5838 92.7522C95.9889 92.7764 94.7081 94.1055 94.7322 95.7246C94.7564 97.3438 96.0614 98.6004 97.6805 98.5762C99.2996 98.5279 100.556 97.2229 100.532 95.6038ZM109.256 79.2192C107.661 79.195 106.356 80.4758 106.332 82.0949C106.308 83.7141 107.589 85.019 109.208 85.019C110.827 85.019 112.132 83.7624 112.132 82.1433C112.156 80.5725 110.851 79.2433 109.256 79.2192ZM112.132 109.258C112.156 107.663 110.875 106.334 109.28 106.285C107.685 106.261 106.356 107.542 106.332 109.137C106.308 110.756 107.589 112.085 109.159 112.085C110.779 112.109 112.108 110.828 112.132 109.258Z" fill="white"/>
<path d="M56.9848 81.1525C43.6934 81.1525 32.9153 70.3261 32.8912 57.0106C32.867 43.7434 43.7417 32.8445 56.9848 32.8445C70.3244 32.8445 81.1992 43.6951 81.1992 57.0106C81.2234 70.3503 70.3969 81.1525 56.9848 81.1525ZM56.9606 79.2192C69.3095 79.2192 79.2659 69.3353 79.2901 57.0347C79.3142 44.7584 69.3095 34.7778 57.0089 34.7778C44.805 34.7778 34.8244 44.7825 34.8244 57.0106C34.8244 69.2386 44.7567 79.2192 56.9606 79.2192Z" fill="white"/>
<path d="M65.7571 51.2349C65.8779 53.1923 65.8296 55.1256 64.2829 56.6239C63.9204 56.9864 64.0654 57.2281 64.3554 57.5181C65.4912 58.6539 65.8296 60.0555 65.7571 61.6022C65.7087 62.5688 65.7571 63.5354 65.7571 64.5021C65.7571 66.7012 64.7663 68.2962 62.7605 69.142C62.0838 69.432 61.818 69.7461 61.8905 70.4469C61.9388 71.0511 61.818 71.6553 61.9147 72.2594C62.0838 73.371 61.528 73.516 60.6097 73.4435C60.0539 73.3952 59.9089 73.226 59.9572 72.7186C59.9814 72.5494 59.9814 72.4044 59.9572 72.2352C59.8847 71.3653 60.3439 70.0361 59.7639 69.7461C58.8939 69.3111 57.6614 69.6011 56.574 69.5528C56.0906 69.5286 56.0906 69.867 56.0906 70.2053C56.0906 71.0511 56.0423 71.8969 56.1148 72.7427C56.1873 73.661 55.5348 73.3952 55.0757 73.4194C54.5923 73.4435 54.0607 73.516 54.1815 72.7186C54.2057 72.5977 54.1815 72.4769 54.1815 72.3561C54.1573 69.5528 54.1573 69.5528 51.2816 69.5528C50.6774 69.5528 50.0733 69.5045 49.4691 69.5528C48.6958 69.6253 48.3575 69.4803 48.3333 68.562C48.3333 67.547 48.8166 67.6195 49.5175 67.6195C52.2482 67.6195 52.2482 67.6195 52.2482 64.8887C52.2482 59.1372 52.1999 53.3857 52.2724 47.6341C52.2966 46.5225 51.9582 46.2083 50.9433 46.3533C50.4599 46.4258 49.9766 46.305 49.4933 46.3775C48.4541 46.5467 48.3333 46.015 48.3575 45.145C48.3816 44.5409 48.5991 44.3959 49.1308 44.4201C50.5324 44.4442 51.9582 44.3959 53.3599 44.4442C53.964 44.4684 54.2298 44.2992 54.1815 43.6467C54.1332 42.8976 54.2298 42.1243 54.1573 41.351C54.0848 40.5535 54.5198 40.5293 55.0998 40.5535C55.6073 40.5776 56.2115 40.4326 56.0906 41.2785C56.0665 41.3993 56.0906 41.5201 56.0906 41.641C56.1148 44.7342 56.2115 44.7825 59.3772 44.4201C59.8847 44.3717 59.9572 44.1784 59.9572 43.7434C59.933 42.9459 60.0055 42.1243 59.933 41.3268C59.8605 40.5293 60.2955 40.5051 60.8755 40.5293C61.5038 40.5293 62.0355 40.5051 61.8905 41.3751C61.8663 41.5685 61.8905 41.7859 61.8905 41.9793C61.7697 43.4292 61.7697 44.6375 63.6063 45.3384C65.0804 45.8942 65.6846 47.4891 65.7571 49.1324C65.7812 49.8574 65.7571 50.5341 65.7571 51.2349ZM54.1573 51.1624C54.1573 52.4915 54.1815 53.8207 54.1573 55.1498C54.1332 55.7781 54.254 56.0923 55.0032 56.0681C56.9848 56.0198 58.9422 56.0681 60.9239 56.0439C62.6155 56.0198 63.7996 54.8356 63.848 53.144C63.8721 51.8874 63.8721 50.6549 63.848 49.3983C63.8238 47.6341 62.6638 46.4258 60.8997 46.3775C58.9181 46.3292 56.9606 46.4017 54.979 46.3533C54.3507 46.3292 54.1332 46.5225 54.1573 47.175C54.1815 48.5041 54.1573 49.8333 54.1573 51.1624ZM54.1573 62.738C54.1573 64.1154 54.1815 65.4687 54.1332 66.8462C54.109 67.4987 54.3265 67.6678 54.9548 67.6437C56.9364 67.5953 58.8939 67.6437 60.8755 67.6195C62.5913 67.5953 63.7513 66.4354 63.8238 64.7437C63.8721 63.4629 63.8721 62.158 63.8238 60.8772C63.7755 59.1855 62.5913 58.0014 60.8997 57.9772C58.9181 57.9531 56.9606 58.0014 54.979 57.9531C54.2298 57.9289 54.109 58.2431 54.1332 58.8714C54.1815 60.1522 54.1573 61.4571 54.1573 62.738Z" fill="white"/>
<path d="M33.9324 52.955L51.9268 34.9606" stroke="white"/>
<path d="M33.9324 59.6387L59.6387 33.9324" stroke="white"/>
<path d="M35.4747 65.8082L52.955 48.3279" stroke="white"/>
<path d="M42.6725 75.5766L52.9551 65.2941" stroke="white"/>
<path d="M47.8138 78.6614L57.0681 69.4071" stroke="white"/>
<path d="M55.5257 45.7573L65.8082 35.4747" stroke="white"/>
<path d="M39.0736 70.4354L52.4409 57.0681" stroke="white"/>
<path d="M63.2376 46.7855L71.4636 38.5594" stroke="white"/>
<path d="M63.7517 54.4974L75.0625 43.1866" stroke="white"/>
<path d="M64.78 61.1811L77.6331 48.3279" stroke="white"/>
<path d="M54.4974 79.1755L79.6896 53.9833" stroke="white"/>
<path d="M62.2094 79.6897L79.6897 62.2094" stroke="white"/>
</svg>
