<svg width="114" height="123" viewBox="0 0 114 123" fill="none" xmlns="http://www.w3.org/2000/svg">
<path d="M0.606245 122.174C0.829818 122.174 1.03619 122.157 1.25977 122.157C38.4245 122.157 75.5893 122.157 112.771 122.157C112.96 122.157 113.15 122.123 113.339 122.174V122.209L113.304 122.226C75.7441 122.226 38.1838 122.226 0.623443 122.226C0.606245 122.226 0.589047 122.209 0.606245 122.174Z" fill="white"/>
<path d="M113.992 64.3546C113.992 82.9112 113.992 101.468 113.992 120.024C113.992 120.179 113.992 120.334 113.992 120.472C113.958 120.953 113.631 121.28 113.15 121.314C113.029 121.314 112.909 121.314 112.771 121.314C75.5893 121.314 38.3901 121.314 1.20816 121.314C1.10497 121.314 0.984583 121.314 0.881395 121.314C0.434248 121.297 0.107487 121.022 0.0214974 120.575C-0.0128985 120.42 0.0042995 120.282 0.0042995 120.128C0.0042995 82.9284 0.0042995 45.7292 0.0042995 8.53003C0.0042995 8.39245 0.00429948 8.25486 0.0214974 8.11728C0.0902893 7.65293 0.41705 7.36057 0.881395 7.32617C0.984583 7.32617 1.10497 7.32617 1.20816 7.32617C38.3901 7.32617 75.5893 7.32617 112.771 7.32617C112.892 7.32617 113.012 7.32617 113.15 7.32617C113.631 7.36057 113.958 7.70453 113.992 8.18607C114.01 8.34085 113.992 8.49563 113.992 8.63322C113.992 27.2242 113.992 45.7808 113.992 64.3546ZM57.0155 119.56C75.211 119.56 93.4236 119.56 111.619 119.56C112.341 119.56 112.221 119.612 112.221 118.941C112.221 90.2719 112.221 61.6029 112.221 32.9339C112.221 32.246 112.307 32.332 111.636 32.332C75.2282 32.332 38.8029 32.332 2.39482 32.332C1.6897 32.332 1.79289 32.2288 1.79289 32.9511C1.79289 61.6201 1.79289 90.2891 1.79289 118.958C1.79289 119.629 1.6897 119.56 2.37762 119.56C20.5903 119.56 38.8029 119.56 57.0155 119.56ZM57.0671 9.13196C38.8029 9.13196 20.5559 9.13196 2.29163 9.13196C1.7241 9.13196 1.79289 9.08036 1.79289 9.6479C1.79289 16.4239 1.79289 23.2171 1.79289 29.9931C1.79289 30.6122 1.7069 30.5434 2.34322 30.5434C38.8029 30.5434 75.2626 30.5434 111.705 30.5434C112.307 30.5434 112.221 30.595 112.221 30.0103C112.221 23.2343 112.221 16.4755 112.221 9.69949C112.221 9.04597 112.307 9.13196 111.653 9.13196C93.458 9.13196 75.2626 9.13196 57.0671 9.13196Z" fill="white"/>
<path d="M56.9639 98.1314C40.7462 98.1314 24.5286 98.1314 8.31089 98.1314C7.65737 98.1314 7.74336 98.2173 7.74336 97.5638C7.74336 97.2371 7.74336 96.9103 7.74336 96.5663C7.74336 96.3943 7.81215 96.3083 7.98413 96.3255C8.08731 96.3255 8.1733 96.3255 8.27649 96.3255C40.7634 96.3255 73.2332 96.3255 105.72 96.3255C106.322 96.3255 106.27 96.2396 106.288 96.8759C106.288 97.1855 106.288 97.5122 106.288 97.8218C106.288 98.1142 106.27 98.1142 105.978 98.1142C105.858 98.1142 105.737 98.1142 105.6 98.1142C89.3821 98.1314 73.1816 98.1314 56.9639 98.1314Z" fill="white"/>
<path d="M57.0155 113.592C40.7979 113.592 24.5802 113.592 8.36253 113.592C7.74341 113.592 7.74341 113.592 7.74341 112.956C7.74341 112.681 7.74341 112.406 7.74341 112.131C7.74341 111.838 7.76061 111.838 8.05297 111.838C8.13896 111.838 8.22495 111.838 8.29374 111.838C40.7635 111.838 73.216 111.838 105.686 111.838C106.322 111.838 106.253 111.769 106.253 112.423C106.253 112.698 106.253 112.973 106.253 113.248C106.253 113.61 106.253 113.61 105.875 113.61C105.772 113.61 105.651 113.61 105.548 113.61C89.3821 113.592 73.1988 113.592 57.0155 113.592Z" fill="white"/>
<path d="M57.0499 104.082C73.2676 104.082 89.4853 104.082 105.703 104.082C106.322 104.082 106.253 103.996 106.253 104.632C106.253 104.959 106.253 105.286 106.253 105.63C106.253 105.836 106.167 105.905 105.978 105.888C105.875 105.888 105.789 105.888 105.686 105.888C73.1988 105.888 40.7291 105.888 8.24214 105.888C8.20774 105.888 8.19054 105.888 8.15615 105.888C7.67461 105.888 7.709 105.922 7.709 105.44C7.709 105.079 7.7262 104.718 7.709 104.374C7.6918 104.151 7.79499 104.082 8.00137 104.099C8.12175 104.116 8.24214 104.099 8.37972 104.099C24.6146 104.082 40.8323 104.082 57.0499 104.082Z" fill="white"/>
<path d="M62.794 88.6036C77.0683 88.6036 91.3598 88.6036 105.634 88.6036C106.356 88.6036 106.253 88.5176 106.27 89.24C106.27 89.5151 106.27 89.7903 106.27 90.0655C106.27 90.3578 106.253 90.3578 105.961 90.3578C105.892 90.3578 105.823 90.3578 105.755 90.3578C77.1199 90.3578 48.5025 90.3578 19.8679 90.3578C19.3004 90.3578 19.3692 90.4266 19.3692 89.8419C19.3692 89.4979 19.3692 89.154 19.3692 88.81C19.3692 88.6552 19.438 88.5864 19.5928 88.5864C19.7304 88.5864 19.8679 88.5864 20.0055 88.5864C34.2626 88.6036 48.5197 88.6036 62.794 88.6036Z" fill="white"/>
<path d="M84.1195 82.636C77.1371 82.636 70.1376 82.636 63.1552 82.636C62.1749 82.636 61.9169 82.378 61.9169 81.3805C61.9169 67.4502 61.9169 53.5026 61.9169 39.5723C61.9169 39.4003 61.8997 39.2111 61.9513 39.0391C62.0373 38.6092 62.3469 38.334 62.7768 38.2996C62.8972 38.2824 63.0176 38.2996 63.1552 38.2996C77.1371 38.2996 91.1019 38.2996 105.084 38.2996C105.204 38.2996 105.325 38.2996 105.462 38.2996C105.892 38.334 106.202 38.6092 106.288 39.0391C106.305 39.1767 106.322 39.3143 106.322 39.4519C106.322 53.4682 106.322 67.4846 106.322 81.5009C106.322 81.6729 106.322 81.8277 106.27 81.9825C106.15 82.3608 105.875 82.5844 105.497 82.6188C105.359 82.636 105.221 82.6188 105.084 82.6188C98.067 82.636 91.0847 82.636 84.1195 82.636ZM63.9463 40.0882C63.7399 40.071 63.6711 40.1742 63.6883 40.3634C63.6883 40.4322 63.6883 40.501 63.6883 40.5698C63.6883 53.8466 63.6883 67.1234 63.6883 80.4002C63.6883 80.9334 63.6367 80.8818 64.1871 80.8818C77.4467 80.8818 90.7063 80.8818 103.966 80.8818C104.533 80.8818 104.465 80.9334 104.465 80.3658C104.465 73.7446 104.465 67.1234 104.465 60.5194C104.465 53.9154 104.465 47.277 104.465 40.673C104.465 40.0538 104.551 40.1226 103.932 40.1226" fill="white"/>
<path d="M33.7639 72.9707C27.8478 72.9707 21.9317 72.9707 16.0156 72.9707C15.3965 72.9707 15.4825 73.0395 15.4825 72.4203C15.4825 72.0936 15.4825 71.7668 15.4825 71.4229C15.4825 71.2681 15.5341 71.1993 15.706 71.1993C15.8092 71.1993 15.8952 71.1993 15.9984 71.1993C27.8478 71.1993 39.7144 71.1993 51.5638 71.1993C52.1313 71.1993 52.0797 71.1477 52.0797 71.698C52.0797 72.042 52.0797 72.3859 52.0797 72.7299C52.0797 72.9019 52.0109 72.9879 51.8389 72.9707C51.7357 72.9707 51.6154 72.9707 51.5122 72.9707C45.5961 72.9707 39.68 72.9707 33.7639 72.9707Z" fill="white"/>
<path d="M33.781 65.2144C27.8478 65.2144 21.9317 65.2144 15.9984 65.2144C15.4308 65.2144 15.4996 65.266 15.4824 64.6985C15.4824 64.3889 15.4824 64.0966 15.4824 63.787C15.4824 63.443 15.4824 63.443 15.8608 63.4258C15.9124 63.4258 15.964 63.4258 16.0328 63.4258C27.8821 63.4258 39.7143 63.4258 51.5637 63.4258C52.1657 63.4258 52.0797 63.357 52.0969 63.9418C52.0969 64.2513 52.0969 64.5781 52.0969 64.8877C52.0969 65.18 52.0797 65.18 51.7873 65.18C51.6841 65.18 51.5637 65.18 51.4605 65.18C45.5616 65.2144 39.6627 65.2144 33.781 65.2144Z" fill="white"/>
<path d="M33.7811 49.7535C27.8478 49.7535 21.9145 49.7535 15.9984 49.7535C15.4309 49.7535 15.4997 49.8051 15.4997 49.2376C15.4997 48.8936 15.4997 48.5497 15.4997 48.2057C15.4997 47.9993 15.5685 47.9305 15.7749 47.9477C15.878 47.9477 15.964 47.9477 16.0672 47.9477C27.8994 47.9477 39.7316 47.9477 51.5638 47.9477C52.1657 47.9477 52.0969 47.8618 52.1141 48.4981C52.1141 48.8248 52.1141 49.1516 52.1141 49.4956C52.1141 49.7019 52.0281 49.7707 51.839 49.7535C51.7358 49.7535 51.6154 49.7535 51.5122 49.7535C45.5789 49.7535 39.68 49.7535 33.7811 49.7535Z" fill="white"/>
<path d="M33.7295 57.5098C27.8134 57.5098 21.8973 57.5098 15.9812 57.5098C15.4137 57.5098 15.4825 57.5785 15.4825 56.9938C15.4825 56.6499 15.4825 56.3059 15.4825 55.9619C15.4825 55.7556 15.5685 55.6868 15.7576 55.704C15.8608 55.704 15.9468 55.704 16.05 55.704C27.8822 55.704 39.7144 55.704 51.5466 55.704C52.1657 55.704 52.0797 55.618 52.0969 56.2543C52.0969 56.5639 52.0969 56.8906 52.0969 57.2002C52.0969 57.4926 52.0797 57.4926 51.7874 57.4926C51.6842 57.4926 51.5982 57.4926 51.495 57.4926C45.5617 57.5098 39.6456 57.5098 33.7295 57.5098Z" fill="white"/>
<path d="M10.581 90.375C9.77272 90.375 8.96442 90.375 8.15612 90.375C7.74336 90.375 7.74337 90.375 7.74337 89.9451C7.74337 89.5839 7.76056 89.2228 7.74337 88.8788C7.72617 88.6552 7.82935 88.5864 8.03573 88.5864C8.12172 88.5864 8.20771 88.5864 8.2765 88.5864C9.80712 88.5864 11.3549 88.5864 12.8856 88.5864C12.9887 88.5864 13.1091 88.5864 13.2123 88.5864C13.3155 88.5864 13.4015 88.638 13.4015 88.7584C13.4015 89.24 13.4015 89.7215 13.4015 90.203C13.4015 90.3234 13.3327 90.375 13.2123 90.375C13.1091 90.375 13.0231 90.375 12.92 90.375C12.146 90.375 11.3721 90.375 10.581 90.375Z" fill="white"/>
<path d="M7.74341 56.5811C7.74341 56.3575 7.74341 56.1339 7.74341 55.9276C7.74341 55.7728 7.8122 55.704 7.96698 55.704C8.41413 55.704 8.87847 55.704 9.32562 55.704C9.4804 55.704 9.54919 55.7728 9.54919 55.9276C9.54919 56.3747 9.54919 56.839 9.54919 57.2862C9.54919 57.441 9.4804 57.5098 9.32562 57.5098C8.87847 57.5098 8.41413 57.5098 7.96698 57.5098C7.8122 57.5098 7.74341 57.441 7.74341 57.2862C7.74341 57.0454 7.74341 56.8046 7.74341 56.5811Z" fill="white"/>
<path d="M9.53198 48.8593C9.53198 49.1 9.53198 49.3236 9.53198 49.5644C9.53198 49.702 9.48039 49.7708 9.3428 49.7708C8.87846 49.7708 8.41411 49.7708 7.93257 49.7708C7.79499 49.7708 7.7262 49.7192 7.7262 49.5816C7.7262 49.1172 7.7262 48.6529 7.7262 48.1713C7.7262 47.9994 7.81219 47.965 7.96697 47.965C8.41411 47.965 8.84406 47.965 9.29121 47.965C9.46319 47.965 9.54918 48.0166 9.53198 48.2057C9.53198 48.4121 9.53198 48.6357 9.53198 48.8593Z" fill="white"/>
<path d="M9.53199 64.3373C9.53199 64.5781 9.53199 64.8016 9.53199 65.0424C9.53199 65.18 9.4632 65.2488 9.34282 65.2488C8.87847 65.2488 8.41413 65.2488 7.94978 65.2488C7.8294 65.2488 7.74341 65.1972 7.74341 65.0596C7.74341 64.5953 7.74341 64.1309 7.74341 63.6666C7.74341 63.529 7.795 63.4602 7.93259 63.4602C8.39693 63.4602 8.86127 63.4602 9.32562 63.4602C9.4976 63.4602 9.53199 63.5462 9.53199 63.6838C9.53199 63.8902 9.53199 64.1137 9.53199 64.3373Z" fill="white"/>
<path d="M8.65489 71.165C8.87846 71.165 9.08484 71.165 9.30841 71.165C9.46319 71.165 9.53198 71.2338 9.53198 71.3886C9.53198 71.8358 9.53198 72.3001 9.53198 72.7473C9.53198 72.902 9.46319 72.9708 9.30841 72.9708C8.86126 72.9708 8.39692 72.9708 7.94977 72.9708C7.79499 72.9708 7.7262 72.9192 7.7262 72.7473C7.7262 72.3001 7.7262 71.8358 7.7262 71.3886C7.7262 71.2338 7.79499 71.165 7.94977 71.165C8.19054 71.1822 8.43131 71.165 8.65489 71.165Z" fill="white"/>
<path d="M56.9983 26.5534C40.3851 26.5534 23.7547 26.5534 7.14144 26.5534C7.00386 26.5534 6.86627 26.5534 6.72869 26.5534C6.17836 26.519 5.8516 26.175 5.8172 25.6247C5.8172 25.5215 5.8172 25.4011 5.8172 25.2979C5.8172 21.6692 5.8172 18.0404 5.8172 14.3944C5.8172 14.36 5.8172 14.3084 5.8172 14.274C5.8172 13.4485 6.12676 13.139 6.96946 13.1218C7.02106 13.1218 7.07265 13.1218 7.14144 13.1218C40.3851 13.1218 73.6115 13.1218 106.855 13.1218C107.062 13.1218 107.268 13.1046 107.474 13.1562C107.921 13.2594 108.197 13.5689 108.231 14.0161C108.231 14.1193 108.231 14.2396 108.231 14.3428C108.231 18.006 108.231 21.6692 108.231 25.3151C108.231 25.4183 108.231 25.5043 108.231 25.6075C108.214 26.1406 107.887 26.4846 107.371 26.5362C107.216 26.5534 107.062 26.5362 106.924 26.5362C90.2592 26.5534 73.6287 26.5534 56.9983 26.5534ZM72.4937 14.9276C61.3838 14.9276 50.2911 14.9276 39.1812 14.9276C39.078 14.9276 38.9577 14.9276 38.8545 14.9276C38.5449 14.9276 38.5449 14.9448 38.5449 15.2543C38.5449 18.3156 38.5449 21.3596 38.5449 24.4208C38.5449 24.7476 38.5449 24.7476 38.8545 24.7476C38.9577 24.7476 39.0437 24.7476 39.1468 24.7476C42.5692 24.7476 45.9916 24.7476 49.4312 24.7476C68.2458 24.7476 87.0603 24.7476 105.892 24.7476C106.477 24.7476 106.408 24.8164 106.425 24.2145C106.425 21.308 106.425 18.4015 106.425 15.5123C106.425 14.8588 106.494 14.9276 105.858 14.9276C94.7306 14.9276 83.6036 14.9276 72.4937 14.9276ZM22.1381 24.7476C26.8503 24.7476 31.5797 24.7476 36.292 24.7476C36.8251 24.7476 36.7735 24.7992 36.7735 24.2488C36.7735 22.1851 36.7735 20.1213 36.7735 18.0576C36.7735 17.1117 36.7735 16.1658 36.7735 15.2027C36.7735 14.9963 36.7219 14.876 36.4984 14.9104C36.4468 14.9104 36.3952 14.9104 36.3264 14.9104C26.8847 14.9104 17.4602 14.9104 8.01854 14.9104C7.55419 14.9104 7.57139 14.876 7.57139 15.3575C7.57139 17.3869 7.57139 19.399 7.57139 21.4284C7.57139 22.4259 7.57139 23.4405 7.57139 24.438C7.57139 24.6444 7.62299 24.7476 7.84656 24.7304C7.94975 24.7132 8.03574 24.7304 8.13892 24.7304C12.8168 24.7476 17.4774 24.7476 22.1381 24.7476Z" fill="white"/>
<path d="M102.401 19.8463C102.401 20.0699 102.401 20.2763 102.401 20.4998C102.401 20.6546 102.332 20.7234 102.177 20.7234C101.73 20.7234 101.283 20.7234 100.819 20.7234C100.664 20.7234 100.595 20.6718 100.595 20.4998C100.595 20.0527 100.595 19.6055 100.595 19.1412C100.595 19.0036 100.664 18.952 100.802 18.952C101.266 18.952 101.73 18.952 102.195 18.952C102.367 18.952 102.401 19.038 102.401 19.1928C102.401 19.4164 102.401 19.6227 102.401 19.8463Z" fill="white"/>
<path d="M14.4334 20.7233C14.1926 20.7233 13.9691 20.7233 13.7283 20.7233C13.5907 20.7233 13.5219 20.6717 13.5219 20.5341C13.5219 20.0698 13.5219 19.6054 13.5219 19.1411C13.5219 19.0207 13.5907 18.9691 13.7111 18.9691C14.1926 18.9691 14.6742 18.9691 15.1557 18.9691C15.2761 18.9691 15.3277 19.0207 15.3277 19.1411C15.3277 19.6054 15.3277 20.0698 15.3277 20.5341C15.3277 20.6717 15.2589 20.7233 15.1213 20.7233C14.8977 20.7233 14.6742 20.7233 14.4334 20.7233Z" fill="white"/>
<path d="M29.0345 19.8119C29.0345 19.6055 29.0345 19.3992 29.0345 19.1928C29.0345 19.0036 29.1033 18.952 29.2752 18.952C29.7052 18.952 30.1523 18.952 30.5823 18.952C30.7543 18.952 30.8231 19.0036 30.8231 19.1928C30.8231 19.6227 30.8231 20.0699 30.8231 20.4998C30.8231 20.6546 30.7543 20.7234 30.5995 20.7234C30.1523 20.7234 29.688 20.7234 29.2408 20.7234C29.0861 20.7234 29.0173 20.6718 29.0173 20.4998C29.0345 20.2763 29.0345 20.0355 29.0345 19.8119Z" fill="white"/>
<path d="M21.2782 19.8634C21.2782 19.6226 21.2782 19.399 21.2782 19.1583C21.2782 19.0035 21.347 18.9347 21.5018 18.9347C21.9489 18.9347 22.4133 18.9347 22.8604 18.9347C23.0152 18.9347 23.084 18.9691 23.084 19.1411C23.084 19.5882 23.084 20.0526 23.084 20.4997C23.084 20.6373 23.0152 20.7061 22.8948 20.7061C22.4305 20.7061 21.9661 20.7061 21.5018 20.7061C21.3298 20.7061 21.2954 20.6201 21.2954 20.4825C21.2782 20.2761 21.2782 20.0698 21.2782 19.8634Z" fill="white"/>
<path d="M63.1019 73.2838L96.8044 39.8934" stroke="white"/>
<path d="M63.1019 65.1703L88.6908 39.8934" stroke="white"/>
<path d="M63.1019 57.3688L80.8893 39.8934" stroke="white"/>
<path d="M62.7899 49.8793L73.0878 39.8934" stroke="white"/>
<path d="M69.3431 82.0216L105.542 46.1348" stroke="white"/>
<path d="M78.705 81.0854L105.542 54.5603" stroke="white"/>
<path d="M86.8185 81.3975L105.542 62.986" stroke="white"/>
<path d="M95.5562 81.3975L105.542 71.7236" stroke="white"/>
<path d="M62.7899 80.4612L103.67 39.8934" stroke="white"/>
<path fill-rule="evenodd" clip-rule="evenodd" d="M4.66168 5.99415H6.30222V2.12976C6.30222 1.86678 6.28612 1.74872 6.33728 1.69627C6.3874 1.64489 6.50207 1.65648 6.75967 1.65648H57.001H107.069C107.369 1.65648 107.499 1.63676 107.554 1.69197C107.609 1.74719 107.589 1.87734 107.589 2.17709V5.99415H109.214V1.19898C109.214 1.15802 109.216 1.11539 109.218 1.07165C109.221 0.980606 109.225 0.884704 109.214 0.788801C109.183 0.347073 108.883 0.031552 108.441 0H108.094H5.76589H5.46618C5.04027 0.031552 4.74055 0.299744 4.67746 0.725697C4.66168 0.851905 4.66168 0.978113 4.66168 1.10432V5.99415Z" fill="white"/>
</svg>
